%YAML 1.1
%TAG !u! tag:unity3d.com,2011:
--- !u!114 &11400000
MonoBehaviour:
  m_ObjectHideFlags: 0
  m_PrefabParentObject: {fileID: 0}
  m_PrefabInternal: {fileID: 0}
  m_GameObject: {fileID: 0}
  m_Enabled: 1
  m_EditorHideFlags: 0
  m_Script: {fileID: 11500000, guid: cf3b3422229e849e9b8ff35bc4107f01, type: 3}
  m_Name: level_2
  m_EditorClassIdentifier: 
  columns: 10
  rows: 16
  data:
  - color: {r: 1, g: 0, b: 0, a: 1}
  - color: {r: 1, g: 0, b: 0, a: 1}
  - color: {r: 1, g: 0, b: 0, a: 1}
  - color: {r: 1, g: 0, b: 0, a: 1}
  - color: {r: 0, g: 0, b: 1, a: 1}
  - color: {r: 0, g: 0, b: 1, a: 1}
  - color: {r: 0, g: 0, b: 1, a: 1}
  - color: {r: 0, g: 0, b: 1, a: 1}
  - color: {r: 0, g: 0, b: 1, a: 1}
  - color: {r: 0, g: 0, b: 1, a: 1}
  - color: {r: 0, g: 0, b: 1, a: 1}
  - color: {r: 0, g: 0, b: 1, a: 1}
  - color: {r: 1, g: 0, b: 0, a: 1}
  - color: {r: 1, g: 0, b: 0, a: 1}
  - color: {r: 1, g: 0, b: 0, a: 1}
  - color: {r: 1, g: 0, b: 0, a: 1}
  - color: {r: 1, g: 0, b: 0, a: 1}
  - color: {r: 1, g: 0, b: 0, a: 1}
  - color: {r: 1, g: 0, b: 0, a: 1}
  - color: {r: 1, g: 0, b: 0, a: 1}
  - color: {r: 0, g: 0, b: 1, a: 1}
  - color: {r: 0, g: 0, b: 1, a: 1}
  - color: {r: 0, g: 0, b: 1, a: 1}
  - color: {r: 0, g: 0, b: 1, a: 1}
  - color: {r: 0, g: 0, b: 1, a: 1}
  - color: {r: 0, g: 0, b: 1, a: 1}
  - color: {r: 0, g: 0, b: 1, a: 1}
  - color: {r: 0, g: 0, b: 1, a: 1}
  - color: {r: 1, g: 0, b: 0, a: 1}
  - color: {r: 1, g: 0, b: 0, a: 1}
  - color: {r: 1, g: 0, b: 0, a: 1}
  - color: {r: 1, g: 0, b: 0, a: 1}
  - color: {r: 1, g: 0, b: 0, a: 1}
  - color: {r: 1, g: 0, b: 0, a: 1}
  - color: {r: 1, g: 0, b: 0, a: 1}
  - color: {r: 1, g: 0, b: 0, a: 1}
  - color: {r: 0, g: 0, b: 1, a: 1}
  - color: {r: 0, g: 0, b: 1, a: 1}
  - color: {r: 0, g: 0, b: 1, a: 1}
  - color: {r: 0, g: 0, b: 1, a: 1}
  - color: {r: 0, g: 0, b: 1, a: 1}
  - color: {r: 0, g: 0, b: 1, a: 1}
  - color: {r: 0, g: 0, b: 1, a: 1}
  - color: {r: 0, g: 0, b: 1, a: 1}
  - color: {r: 1, g: 0, b: 0, a: 1}
  - color: {r: 1, g: 0, b: 0, a: 1}
  - color: {r: 1, g: 0, b: 0, a: 1}
  - color: {r: 1, g: 0, b: 0, a: 1}
  - color: {r: 1, g: 0, b: 0, a: 1}
  - color: {r: 1, g: 0, b: 0, a: 1}
  - color: {r: 1, g: 0, b: 0, a: 1}
  - color: {r: 1, g: 0, b: 0, a: 1}
  - color: {r: 0, g: 0, b: 1, a: 1}
  - color: {r: 0, g: 0, b: 1, a: 1}
  - color: {r: 0, g: 0, b: 1, a: 1}
  - color: {r: 0, g: 0, b: 1, a: 1}
  - color: {r: 0, g: 0, b: 1, a: 1}
  - color: {r: 0, g: 0, b: 1, a: 1}
  - color: {r: 0, g: 0, b: 1, a: 1}
  - color: {r: 0, g: 0, b: 1, a: 1}
  - color: {r: 1, g: 0, b: 0, a: 1}
  - color: {r: 1, g: 0, b: 0, a: 1}
  - color: {r: 1, g: 0, b: 0, a: 1}
  - color: {r: 1, g: 0, b: 0, a: 1}
  - color: {r: 1, g: 0, b: 0, a: 1}
  - color: {r: 1, g: 0, b: 0, a: 1}
  - color: {r: 1, g: 0, b: 0, a: 1}
  - color: {r: 1, g: 0, b: 0, a: 1}
  - color: {r: 0, g: 0, b: 1, a: 1}
  - color: {r: 0, g: 0, b: 1, a: 1}
  - color: {r: 0, g: 0, b: 1, a: 1}
  - color: {r: 0, g: 0, b: 1, a: 1}
  - color: {r: 0, g: 0, b: 1, a: 1}
  - color: {r: 0, g: 0, b: 1, a: 1}
  - color: {r: 0, g: 0, b: 1, a: 1}
  - color: {r: 0, g: 0, b: 1, a: 1}
  - color: {r: 1, g: 0, b: 0, a: 1}
  - color: {r: 1, g: 0, b: 0, a: 1}
  - color: {r: 1, g: 0, b: 0, a: 1}
  - color: {r: 1, g: 0, b: 0, a: 1}
  - color: {r: 1, g: 0, b: 0, a: 1}
  - color: {r: 1, g: 0, b: 0, a: 1}
  - color: {r: 1, g: 0, b: 0, a: 1}
  - color: {r: 1, g: 0, b: 0, a: 1}
  - color: {r: 0, g: 0, b: 1, a: 1}
  - color: {r: 0, g: 0, b: 1, a: 1}
  - color: {r: 0, g: 0, b: 1, a: 1}
  - color: {r: 0, g: 0, b: 1, a: 1}
  - color: {r: 0, g: 0, b: 1, a: 1}
  - color: {r: 0, g: 0, b: 1, a: 1}
  - color: {r: 0, g: 0, b: 1, a: 1}
  - color: {r: 0, g: 0, b: 1, a: 1}
  - color: {r: 1, g: 0, b: 0, a: 1}
  - color: {r: 1, g: 0, b: 0, a: 1}
  - color: {r: 1, g: 0, b: 0, a: 1}
  - color: {r: 1, g: 0, b: 0, a: 1}
  - color: {r: 1, g: 0, b: 0, a: 1}
  - color: {r: 1, g: 0, b: 0, a: 1}
  - color: {r: 1, g: 0, b: 0, a: 1}
  - color: {r: 1, g: 0, b: 0, a: 1}
  - color: {r: 0, g: 0, b: 1, a: 1}
  - color: {r: 0, g: 0, b: 1, a: 1}
  - color: {r: 0, g: 0, b: 1, a: 1}
  - color: {r: 0, g: 0, b: 1, a: 1}
  - color: {r: 0, g: 0, b: 1, a: 1}
  - color: {r: 0, g: 0, b: 1, a: 1}
  - color: {r: 0, g: 0, b: 1, a: 1}
  - color: {r: 0, g: 0, b: 1, a: 1}
  - color: {r: 1, g: 0, b: 0, a: 1}
  - color: {r: 1, g: 0, b: 0, a: 1}
  - color: {r: 1, g: 0, b: 0, a: 1}
  - color: {r: 1, g: 0, b: 0, a: 1}
  - color: {r: 1, g: 0, b: 0, a: 1}
  - color: {r: 1, g: 0, b: 0, a: 1}
  - color: {r: 1, g: 0, b: 0, a: 1}
  - color: {r: 1, g: 0, b: 0, a: 1}
  - color: {r: 0, g: 0, b: 1, a: 1}
  - color: {r: 0, g: 0, b: 1, a: 1}
  - color: {r: 0, g: 0, b: 1, a: 1}
  - color: {r: 0, g: 0, b: 1, a: 1}
  - color: {r: 0, g: 0, b: 1, a: 1}
  - color: {r: 0, g: 0, b: 1, a: 1}
  - color: {r: 0, g: 0, b: 1, a: 1}
  - color: {r: 0, g: 0, b: 1, a: 1}
  - color: {r: 1, g: 0, b: 0, a: 1}
  - color: {r: 1, g: 0, b: 0, a: 1}
  - color: {r: 1, g: 0, b: 0, a: 1}
  - color: {r: 1, g: 0, b: 0, a: 1}
  - color: {r: 1, g: 0, b: 0, a: 1}
  - color: {r: 1, g: 0, b: 0, a: 1}
  - color: {r: 1, g: 0, b: 0, a: 1}
  - color: {r: 1, g: 0, b: 0, a: 1}
  - color: {r: 0, g: 0, b: 1, a: 1}
  - color: {r: 0, g: 0, b: 1, a: 1}
  - color: {r: 0, g: 0, b: 1, a: 1}
  - color: {r: 0, g: 0, b: 1, a: 1}
  - color: {r: 0, g: 0, b: 1, a: 1}
  - color: {r: 0, g: 0, b: 1, a: 1}
  - color: {r: 0, g: 0, b: 1, a: 1}
  - color: {r: 0, g: 0, b: 1, a: 1}
  - color: {r: 1, g: 0, b: 0, a: 1}
  - color: {r: 1, g: 0, b: 0, a: 1}
  - color: {r: 1, g: 0, b: 0, a: 1}
  - color: {r: 1, g: 0, b: 0, a: 1}
  - color: {r: 1, g: 0, b: 0, a: 1}
  - color: {r: 1, g: 0, b: 0, a: 1}
  - color: {r: 1, g: 0, b: 0, a: 1}
  - color: {r: 1, g: 0, b: 0, a: 1}
  - color: {r: 0, g: 0, b: 1, a: 1}
  - color: {r: 0, g: 0, b: 1, a: 1}
  - color: {r: 0, g: 0, b: 1, a: 1}
  - color: {r: 0, g: 0, b: 1, a: 1}
  - color: {r: 0, g: 0, b: 1, a: 1}
  - color: {r: 0, g: 0, b: 1, a: 1}
  - color: {r: 0, g: 0, b: 1, a: 1}
  - color: {r: 0, g: 0, b: 1, a: 1}
  - color: {r: 1, g: 0, b: 0, a: 1}
  - color: {r: 1, g: 0, b: 0, a: 1}
  - color: {r: 1, g: 0, b: 0, a: 1}
  - color: {r: 1, g: 0, b: 0, a: 1}
